module gitlab.com/glowww109/go-Kata2

go 1.19

require (
	github.com/essentialkaos/translit/v2 v2.0.4
	github.com/stretchr/testify v1.8.1
)

require (
	github.com/davecgh/go-spew v1.1.1 // indirect
	github.com/pmezard/go-difflib v1.0.0 // indirect
	gopkg.in/yaml.v3 v3.0.1 // indirect
)
